^C:\USERS\ALSHAIMAA_KARAM\DESKTOP\ADD\ADD\DEBUG\ADD.EXE.EMBED.MANIFEST.RES|C:\USERS\ALSHAIMAA_KARAM\DESKTOP\ADD\ADD\DEBUG\ADD.OBJ
C:\USERS\ALSHAIMAA_KARAM\DESKTOP\ADD\DEBUG\ADD.ILK
C:\USERS\ALSHAIMAA_KARAM\DESKTOP\ADD\DEBUG\ADD.EXE
C:\USERS\ALSHAIMAA_KARAM\DESKTOP\ADD\ADD\DEBUG\ADD.EXE.INTERMEDIATE.MANIFEST
C:\USERS\ALSHAIMAA_KARAM\DESKTOP\ADD\DEBUG\ADD.PDB
