^C:\USERS\ALSHAIMAA_KARAM\DESKTOP\ADD\ADD\DEBUG\ADD.EXE.EMBED.MANIFEST.RES|C:\USERS\ALSHAIMAA_KARAM\DESKTOP\ADD\ADD\DEBUG\ADD.OBJ
/ERRORREPORT:PROMPT /OUT:"C:\Users\ALShaimaa_Karam\Desktop\add\Debug\add.exe" /INCREMENTAL /NOLOGO kernel32.lib user32.lib gdi32.lib winspool.lib comdlg32.lib advapi32.lib shell32.lib ole32.lib oleaut32.lib uuid.lib odbc32.lib odbccp32.lib /MANIFEST /ManifestFile:"Debug\add.exe.intermediate.manifest" /MANIFESTUAC:"level='asInvoker' uiAccess='false'" /DEBUG /PDB:"C:\Users\ALShaimaa_Karam\Desktop\add\Debug\add.pdb" /SUBSYSTEM:CONSOLE /TLBID:1 /DYNAMICBASE /NXCOMPAT /IMPLIB:"C:\Users\ALShaimaa_Karam\Desktop\add\Debug\add.lib" /MACHINE:X86 Debug\add.exe.embed.manifest.res
Debug\add.obj
